<?xml version="1.0" encoding="utf-8"?>
<!-- Generator: Adobe Illustrator 16.0.3, SVG Export Plug-In . SVG Version: 6.00 Build 0)  -->
<!DOCTYPE svg PUBLIC "-//W3C//DTD SVG 1.1//EN" "http://www.w3.org/Graphics/SVG/1.1/DTD/svg11.dtd">
<svg version="1.1" id="Ebene_1" xmlns="http://www.w3.org/2000/svg" xmlns:xlink="http://www.w3.org/1999/xlink" x="0px" y="0px"
	 width="71.089px" height="50px" viewBox="0 0 71.089 50" enable-background="new 0 0 71.089 50" xml:space="preserve">
<polygon fill="#FFFFFF" points="28.909,34.452 48.599,24.25 28.909,13.977 "/>
<polygon fill="#D6D8D7" points="46.176,25.508 46.174,25.507 48.6,24.251 "/>
<polygon fill="#D6D8D7" points="46.174,25.507 28.909,13.978 48.598,24.251 "/>
<g>
	<defs>
		<rect id="SVGID_1_" width="71.089" height="50"/>
	</defs>
	<clipPath id="SVGID_2_">
		<use xlink:href="#SVGID_1_"  overflow="visible"/>
	</clipPath>
	<path clip-path="url(#SVGID_2_)" d="M72.143,10.431c0,0-0.713-5.021-2.897-7.232c-2.771-2.903-5.877-2.917-7.302-3.087
		C51.747-0.626,36.451-0.626,36.451-0.626h-0.032c0,0-15.296,0-25.493,0.737c-1.425,0.17-4.53,0.184-7.301,3.087
		c-2.185,2.211-2.896,7.232-2.896,7.232S0,16.327,0,22.224v5.529c0,5.896,0.729,11.793,0.729,11.793s0.711,5.022,2.896,7.233
		c2.771,2.902,6.413,2.811,8.034,3.114c5.83,0.56,24.776,0.732,24.776,0.732s15.312-0.023,25.508-0.76
		c1.425-0.17,4.531-0.185,7.302-3.087c2.185-2.211,2.897-7.233,2.897-7.233s0.728-5.896,0.728-11.793v-5.529
		C72.87,16.327,72.143,10.431,72.143,10.431 M28.912,34.452l-0.003-20.476L48.598,24.25L28.912,34.452z"/>
</g>
<g>
</g>
<g>
</g>
<g>
</g>
<g>
</g>
<g>
</g>
<g>
</g>
<g>
</g>
<g>
</g>
<g>
</g>
<g>
</g>
<g>
</g>
<g>
</g>
<g>
</g>
<g>
</g>
<g>
</g>
</svg>
