<?xml version="1.0" encoding="utf-8"?>
<!-- Generator: Adobe Illustrator 16.0.3, SVG Export Plug-In . SVG Version: 6.00 Build 0)  -->
<!DOCTYPE svg PUBLIC "-//W3C//DTD SVG 1.1//EN" "http://www.w3.org/Graphics/SVG/1.1/DTD/svg11.dtd">
<svg version="1.1" id="Ebene_1" xmlns="http://www.w3.org/2000/svg" xmlns:xlink="http://www.w3.org/1999/xlink" x="0px" y="0px"
	 width="201.57px" height="44.829px" viewBox="0 0 201.57 44.829" enable-background="new 0 0 201.57 44.829" xml:space="preserve">
<g>
	<defs>
		<rect id="SVGID_1_" width="201.568" height="44.829"/>
	</defs>
	<clipPath id="SVGID_2_">
		<use xlink:href="#SVGID_1_"  overflow="visible"/>
	</clipPath>
	<path clip-path="url(#SVGID_2_)" fill="#FFFFFF" d="M194.9,33.565H178.09v-2.265l11.061-12.914l1.772-1.688v-0.056h-12.608v-2.746
		h16.475v2.207l-11.223,12.915l-1.777,1.782v0.075H194.9V33.565z M170.224,33.896c-3.284,0-5.414-2.188-5.414-6.066V16.823
		l0.164-0.292h-2.519v-2.635h2.519l-0.164-0.325v-3.128l2.858-1.563v4.691l-0.131,0.325h6.238v2.635h-6.238l0.131,0.292v10.882
		c0,2.313,1.045,3.471,2.701,3.471c1.377,0,2.416-0.437,3.511-1.469l2.034,2.001C174.131,33.178,172.287,33.896,170.224,33.896
		 M179.154,0c-12.379,0-22.414,10.035-22.414,22.415c0,12.379,10.035,22.414,22.414,22.414s22.416-10.035,22.416-22.414
		C201.57,10.035,191.533,0,179.154,0"/>
	<g clip-path="url(#SVGID_2_)">
		<path fill="#FFFFFF" d="M6.797,28.029c-0.822,0.632-1.66,0.948-2.577,0.948c-1.549,0-2.545-1.027-2.545-2.956v-6.086l0.063-0.111
			H0.474V18.86h1.265l-0.063-0.11v-1.724l1.059-0.569v2.293l-0.063,0.11h3.146v0.964H2.671l0.063,0.111v6.022
			c0,1.28,0.569,2.008,1.565,2.008c0.68,0,1.217-0.222,1.755-0.695L6.797,28.029z"/>
		<path fill="#FFFFFF" d="M16.728,28.819h-1.059v-6.197c0-1.596-0.553-2.893-2.972-2.893c-1.755,0-3.256,1.027-3.256,3.099v5.991
			H8.381V15.54H9.44v4.838h0.032c0.727-1.043,1.96-1.676,3.398-1.676c2.688,0,3.857,1.486,3.857,3.684V28.819z"/>
		<path fill="#FFFFFF" d="M23.45,28.978c-3.003,0-4.505-2.118-4.505-5.138c0-3.004,1.501-5.138,4.489-5.138
			c3.02,0,4.521,2.103,4.521,5.138C27.956,26.844,26.422,28.978,23.45,28.978z M23.45,19.729c-2.466,0-3.446,1.85-3.446,4.11
			c0,2.245,1.012,4.11,3.446,4.11c2.451,0,3.446-1.85,3.446-4.11S25.885,19.729,23.45,19.729z"/>
		<path fill="#FFFFFF" d="M34.837,19.951h-0.269c-1.549,0-3.256,1.091-3.256,3.952v4.916h-1.059V18.86h1.059v2.166h0.032
			c0.553-1.518,1.897-2.276,3.383-2.276h0.111V19.951z"/>
		<path fill="#FFFFFF" d="M40.988,28.978c-1.344,0-2.577-0.49-3.319-1.707h-0.032v1.549h-1.059V15.557h1.059v4.885h0.032
			c0.822-1.218,1.992-1.739,3.319-1.739c3.004,0,4.411,2.229,4.411,5.232C45.399,26.906,43.96,28.978,40.988,28.978z M40.925,19.729
			c-2.514,0-3.415,1.977-3.415,4.205s0.933,4.031,3.415,4.031c2.498,0,3.415-1.803,3.415-4.031S43.423,19.729,40.925,19.729z"/>
		<path fill="#FFFFFF" d="M56.137,24.33h-8.031l0.111,0.095c0.269,2.355,1.438,3.525,3.541,3.525c1.075,0,2.008-0.38,2.735-1.044
			l0.743,0.759c-0.901,0.854-2.087,1.313-3.478,1.313c-3.162,0-4.616-2.134-4.616-5.059c0-3.083,1.675-5.217,4.537-5.217
			c3.02,0,4.474,2.166,4.474,5.217C56.153,24.093,56.153,24.203,56.137,24.33z M55.173,23.35l-0.11-0.11
			c-0.158-2.15-1.344-3.51-3.367-3.51c-2.087,0-3.209,1.359-3.462,3.51l-0.111,0.11H55.173z"/>
		<path fill="#FFFFFF" d="M66.796,28.819h-1.059v-6.086c0-1.724-0.554-3.004-2.972-3.004c-1.754,0-3.256,1.044-3.256,3.146v5.943
			H58.45V18.86h1.059v1.533h0.032c0.695-1.075,1.992-1.691,3.383-1.691c2.529,0,3.873,1.328,3.873,3.715V28.819z"/>
		<path fill="#FFFFFF" d="M77.187,28.819h-8.094V27.95l5.992-7.272l0.822-0.79v-0.031h-6.703v-0.98h7.936v0.822l-5.975,7.256
			l-0.87,0.854v0.031h6.892V28.819z"/>
		<path fill="#FFFFFF" d="M80.1,17.248c-0.506,0-0.791-0.332-0.791-0.901s0.285-0.901,0.791-0.901c0.521,0,0.79,0.332,0.79,0.901
			S80.605,17.248,80.1,17.248z M80.621,28.819h-1.059v-9.943h1.059V28.819z"/>
		<path fill="#FFFFFF" d="M91.91,24.33h-8.031l0.111,0.095c0.269,2.355,1.438,3.525,3.541,3.525c1.075,0,2.008-0.38,2.735-1.044
			l0.743,0.759c-0.901,0.854-2.087,1.313-3.478,1.313c-3.162,0-4.616-2.134-4.616-5.059c0-3.083,1.675-5.217,4.537-5.217
			c3.02,0,4.474,2.166,4.474,5.217C91.925,24.093,91.925,24.203,91.91,24.33z M90.945,23.35l-0.11-0.11
			c-0.158-2.15-1.344-3.51-3.367-3.51c-2.087,0-3.209,1.359-3.462,3.51l-0.111,0.11H90.945z"/>
		<path fill="#FFFFFF" d="M102.489,18.876v9.137c0,2.688-1.359,4.205-4.315,4.205c-1.455,0-2.688-0.395-3.763-1.201l0.759-0.774
			c0.806,0.601,1.96,0.979,3.004,0.979c2.118,0,3.256-1.186,3.256-3.209v-1.786h-0.031c-0.791,1.075-1.913,1.676-3.383,1.676
			c-2.925,0-4.347-1.802-4.347-4.568c0-2.561,1.486-4.632,4.331-4.632c1.518,0,2.767,0.633,3.399,1.676h0.031v-1.502H102.489z
			 M98.063,19.729c-2.276,0-3.335,1.581-3.335,3.604c0,2.118,1.122,3.557,3.335,3.557c2.418,0,3.494-1.518,3.494-3.557
			C101.557,21.231,100.323,19.729,98.063,19.729z"/>
		<path fill="#FFFFFF" d="M106.383,28.819h-1.043V15.54h1.043V28.819z"/>
		<path fill="#FFFFFF" d="M117.671,24.33h-8.03l0.11,0.095c0.269,2.355,1.438,3.525,3.541,3.525c1.075,0,2.008-0.38,2.735-1.044
			l0.742,0.759c-0.9,0.854-2.086,1.313-3.478,1.313c-3.161,0-4.616-2.134-4.616-5.059c0-3.083,1.676-5.217,4.537-5.217
			c3.02,0,4.474,2.166,4.474,5.217C117.687,24.093,117.687,24.203,117.671,24.33z M116.707,23.35l-0.111-0.11
			c-0.158-2.15-1.344-3.51-3.367-3.51c-2.086,0-3.209,1.359-3.462,3.51l-0.11,0.11H116.707z"/>
		<path fill="#FFFFFF" d="M124.567,19.951h-0.269c-1.549,0-3.256,1.091-3.256,3.952v4.916h-1.06V18.86h1.06v2.166h0.031
			c0.553-1.518,1.896-2.276,3.383-2.276h0.11V19.951z"/>
		<path fill="#FFFFFF" d="M125.977,28.978c-0.711,0-1.075-0.475-1.075-1.201c0-0.712,0.38-1.186,1.075-1.186
			c0.711,0,1.075,0.474,1.075,1.186C127.052,28.503,126.672,28.978,125.977,28.978z"/>
		<path fill="#FFFFFF" d="M137.851,28.819h-1.06v-1.549h-0.031c-0.727,1.217-1.96,1.707-3.32,1.707c-2.971,0-4.41-2.071-4.41-5.043
			c0-3.004,1.423-5.232,4.427-5.232c1.327,0,2.497,0.521,3.304,1.739h0.031v-4.885h1.06V28.819z M133.504,19.729
			c-2.482,0-3.415,1.977-3.415,4.205s0.917,4.031,3.415,4.031c2.481,0,3.414-1.803,3.414-4.031S136.017,19.729,133.504,19.729z"/>
		<path fill="#FFFFFF" d="M149.142,24.33h-8.03l0.11,0.095c0.269,2.355,1.438,3.525,3.541,3.525c1.075,0,2.008-0.38,2.735-1.044
			l0.742,0.759c-0.9,0.854-2.086,1.313-3.478,1.313c-3.161,0-4.616-2.134-4.616-5.059c0-3.083,1.676-5.217,4.537-5.217
			c3.02,0,4.474,2.166,4.474,5.217C149.157,24.093,149.157,24.203,149.142,24.33z M148.178,23.35l-0.111-0.11
			c-0.158-2.15-1.344-3.51-3.367-3.51c-2.086,0-3.209,1.359-3.462,3.51l-0.11,0.11H148.178z"/>
	</g>
</g>
<g>
</g>
<g>
</g>
<g>
</g>
<g>
</g>
<g>
</g>
<g>
</g>
<g>
</g>
<g>
</g>
<g>
</g>
<g>
</g>
<g>
</g>
<g>
</g>
<g>
</g>
<g>
</g>
<g>
</g>
</svg>
